\relax 
\providecommand\hyper@newdestlabel[2]{}
\providecommand*\new@tpo@label[2]{}
\providecommand\HyperFirstAtBeginDocument{\AtBeginDocument}
\HyperFirstAtBeginDocument{\ifx\hyper@anchor\@undefined
\global\let\oldcontentsline\contentsline
\gdef\contentsline#1#2#3#4{\oldcontentsline{#1}{#2}{#3}}
\global\let\oldnewlabel\newlabel
\gdef\newlabel#1#2{\newlabelxx{#1}#2}
\gdef\newlabelxx#1#2#3#4#5#6{\oldnewlabel{#1}{{#2}{#3}}}
\AtEndDocument{\ifx\hyper@anchor\@undefined
\let\contentsline\oldcontentsline
\let\newlabel\oldnewlabel
\fi}
\fi}
\global\let\hyper@last\relax 
\gdef\HyperFirstAtBeginDocument#1{#1}
\providecommand\HyField@AuxAddToFields[1]{}
\providecommand\HyField@AuxAddToCoFields[2]{}
\providecommand\BKM@entry[2]{}
\providecommand\mph@setcol[2]{}
\@writefile{lof}{\deactivateaddvspace  }
\@writefile{lot}{\deactivateaddvspace  }
\def\mph@nr{1}
\def\mph@nr{2}
\def\mph@nr{3}
\def\mph@nr{4}
\def\mph@nr{5}
\def\mph@nr{6}
\mph@setcol{ii:1}{\mph@nr}
\def\mph@nr{7}
\def\mph@nr{8}
\def\mph@nr{9}
\def\mph@nr{10}
\def\mph@nr{11}
\def\mph@nr{12}
\def\mph@nr{13}
\def\mph@nr{14}
\mph@setcol{ii:2}{\mph@nr}
\gdef\mph@lastpage{3}
\csname mph@do@warn\endcsname
