\relax 
\bibstyle{biblio_alpha}
\citation{gaines2022small}
\citation{gainesaffleck2}
\citation{Gaines20}
\bibdata{cv}
\bibcite{gaines2022small}{{1}{2022}{{Gaines~III}}{{}}}
\bibcite{Gaines20}{{2}{2020}{{Gaines~III and Affleck}}{{}}}
\bibcite{gainesaffleck2}{{3}{2021}{{Gaines~III and Affleck}}{{}}}
\gdef \@abspage@last{8}
