\relax 
\bibstyle{biblio_alpha}
\citation{Gaines20}
\citation{gainesaffleck2}
\bibdata{cv}
\bibcite{Gaines20}{{1}{2020}{{Gaines~III and Affleck}}{{}}}
\bibcite{gainesaffleck2}{{2}{In review}{{Gaines~III and Affleck}}{{}}}
\gdef \@abspage@last{8}
